<?xml version="1.0" encoding="UTF-8"?>
<!DOCTYPE svg PUBLIC "-//W3C//DTD SVG 1.1//EN" "http://www.w3.org/Graphics/SVG/1.1/DTD/svg11.dtd">
<svg xmlns="http://www.w3.org/2000/svg"><defs>
        <linearGradient x1="50%" y1="0%" x2="50%" y2="100%" id="a">
            <stop stop-color="#FF9D4C" offset="0%"/>
            <stop stop-color="#FF6425" offset="100%"/>
        </linearGradient>
    </defs><symbol id="icon-active-menu" viewBox="0 0 81 8">
    <title>
        Line
    </title>
    <path d="M46.287 0h34.57v2H47.014l-6.668 5.58L33.91 2H0V0h34.657l5.712 4.953z" fill-rule="nonzero"/>
</symbol><symbol id="icon-arrow-distance" viewBox="0 0 29 7">
    <title>
        Group 6
    </title>
    <g fill-rule="nonzero">
        <path d="M4 4V3h21.234v1z"/>
        <path d="M26.914 3.5l-2.121-2.121.707-.707L28.328 3.5 25.5 6.328l-.707-.707z"/>
        <path d="M2.087 3.45l2.046 2.195-.732.682L.673 3.4 3.6.673l.682.732z"/>
    </g>
</symbol><symbol id="icon-arrow-left-2" viewBox="0 0 22 11">
    <title>
        Shape
    </title>
    <path d="M22 7.027H7.23V3.491H22v3.536zM5.838 10.362L.708 6.398C-.038 5.82-.04 4.88.704 4.3L5.882.256c.744-.58 1.346-.142 1.342.981l-.028 8.136c-.002 1.123-.61 1.566-1.358.99z" fill-rule="nonzero"/>
</symbol><symbol id="icon-arrow-left" viewBox="0 0 23 15">
    <title>
        Shape
    </title>
    <path d="M21.988 6.084L4.972 6.09l3.786-3.807a.99.99 0 0 0 .287-.702.988.988 0 0 0-.287-.7l-.59-.592A.975.975 0 0 0 7.474 0a.975.975 0 0 0-.695.288L.287 6.799A.98.98 0 0 0 0 7.5a.98.98 0 0 0 .287.701l6.49 6.512a.975.975 0 0 0 .696.288c.264 0 .51-.102.696-.288l.589-.591a.98.98 0 0 0 .287-.698.95.95 0 0 0-.287-.685L4.928 8.91h17.074c.542 0 .998-.47.998-1.013V7.06c0-.544-.47-.976-1.012-.976z" fill-rule="nonzero"/>
</symbol><symbol id="icon-arrow-right-2" viewBox="0 0 10 17">
    <title>
        Shape
    </title>
    <path d="M9.24 8.206a.496.496 0 0 1 0 .721L1.927 16.24a.496.496 0 0 1-.722 0l-.784-.784a.496.496 0 0 1 0-.722l6.167-6.167L.42 2.399a.496.496 0 0 1 0-.721l.784-.785a.495.495 0 0 1 .722 0L9.24 8.206z" fill-rule="nonzero"/>
</symbol><symbol id="icon-arrow-right-4" viewBox="0 0 13 6">
    <title>
        Shape
    </title>
    <path d="M.014 4.057h8.348V2.06H.014v1.998zM9.15 5.943l2.9-2.241c.422-.326.423-.857.002-1.186L9.125.23c-.421-.328-.761-.08-.76.555l.017 4.598c0 .635.345.886.767.56z" fill-rule="nonzero"/>
</symbol><symbol id="icon-arrow-right-5" viewBox="0 0 12 20">
    <title>
        Path 3 Copy
    </title>
    <path d="M.94 3.06A1.5 1.5 0 1 1 3.06.94l8 8a1.5 1.5 0 0 1 0 2.12l-8 8a1.5 1.5 0 1 1-2.12-2.12L7.878 10 .939 3.06z" fill-rule="nonzero"/>
</symbol><symbol id="icon-arrow-right-6" viewBox="0 0 47 43">
    <title>
        Combined Shape
    </title>
    <path d="M33.05 25H0v-7h33.05l-13-13L25 .05 46.45 21.5l-4.95 4.95L25 42.95 20.05 38l13-13z" fill-rule="nonzero"/>
</symbol><symbol id="icon-arrow-right" viewBox="0 0 12 20">
    <title>
        Shape-Copy
    </title>
    <path d="M2.42 19.83L.276 17.511 7.32 9.89.276 2.268 2.42-.052l9.185 9.942z" fill-rule="nonzero"/>
</symbol><symbol id="icon-arrow-round" viewBox="0 0 13 12">
    <title>
        Combined Shape
    </title>
    <path d="M0 3.972V1.973h8.348v1.999H0zm9.135 1.885c-.422.326-.766.076-.768-.56L8.352.7c-.002-.634.337-.882.758-.554l2.927 2.286c.42.328.42.86-.002 1.185l-2.9 2.241zm3.837 4.115H4.624V7.973h8.348v1.999zm-9.135 1.885l-2.9-2.24C.515 9.29.514 8.758.935 8.43L3.86 6.145c.421-.328.761-.08.759.554l-.016 4.599c-.001.635-.345.885-.767.559z" fill-rule="nonzero"/>
</symbol><symbol id="icon-arrow-up" viewBox="0 0 20 12">
    <title>
        arrow-up
    </title>
    <path d="M19.882 9.41l-2.32 2.144-7.621-7.042-7.621 7.042L0 9.411 9.94.225z" fill-rule="nonzero"/>
</symbol><symbol id="icon-baggage-add" viewBox="0 0 16 15">
    <path d="M15.696 2.12a1.006 1.006 0 0 0-.745-.311h-3.963V.499a.478.478 0 0 0-.477-.486H5.489A.485.485 0 0 0 5.004.5v1.31H1.049c-.295 0-.544.106-.746.312-.197.201-.303.45-.303.737v10.458a1.036 1.036 0 0 0 1.05 1.05h13.9c.296 0 .55-.102.746-.304.202-.206.304-.46.304-.746V2.858c0-.286-.106-.536-.304-.737zM5.966.977h4.067v.832H5.966zM3.408 13.403H1.049c-.043 0-.095-.052-.095-.087V2.858c0-.06.034-.087.095-.087h2.359zm8.221 0H4.388V2.771h7.241zm3.408-.087c0 .061-.026.087-.086.087h-2.36V2.771h2.36c.06 0 .086.026.086.087z"/>
</symbol><symbol id="icon-bin" viewBox="0 0 13 16">
    <title>
        delete-button
    </title>
    <g fill-rule="nonzero">
        <path d="M11.164 1.917H8.66A2.175 2.175 0 0 0 6.5 0C5.385 0 4.464.84 4.339 1.917H1.836C.824 1.917 0 2.737 0 3.745v.094c0 .77.482 1.43 1.16 1.698v8.635C1.16 15.18 1.986 16 2.998 16h7.006c1.013 0 1.836-.82 1.836-1.828V5.537A1.83 1.83 0 0 0 13 3.839v-.094a1.834 1.834 0 0 0-1.836-1.828zM6.5.867c.634 0 1.164.452 1.281 1.05H5.219A1.306 1.306 0 0 1 6.5.867zm4.468 13.305c0 .53-.433.961-.965.961H2.997a.964.964 0 0 1-.965-.961V5.667h8.936v8.505zM12.13 3.839c0 .53-.433.96-.966.96H1.836a.964.964 0 0 1-.965-.96v-.094c0-.53.433-.961.965-.961h9.328c.532 0 .965.431.965.96v.095z"/>
        <path d="M4.5 14c.276 0 .5-.203.5-.452V8.453C5 8.203 4.776 8 4.5 8s-.5.203-.5.453v5.095c0 .25.224.452.5.452z"/>
        <path d="M6.5 14c.276 0 .5-.203.5-.452V8.453C7 8.203 6.776 8 6.5 8s-.5.203-.5.453v5.095c0 .25.224.452.5.452z"/>
        <path d="M8.5 14c.276 0 .5-.203.5-.452V8.453C9 8.203 8.776 8 8.5 8s-.5.203-.5.453v5.095c0 .25.224.452.5.452z"/>
    </g>
</symbol><symbol id="icon-board-arrow-for-old-cities" viewBox="0 0 12 24">
    <title>
        Group 3
    </title>
    <g fill-rule="nonzero">
        <path d="M2.176 18h6.665v2H.176V0h11.326v2H2.176z"/>
        <path d="M4.377 15.693l1.442-1.386 4.513 4.696-4.516 4.654-1.435-1.393 3.17-3.267z"/>
    </g>
</symbol><symbol id="icon-cafe" viewBox="0 0 20 14">
    <title>
        Layer_1
    </title>
    <g fill-rule="evenodd">
        <path d="M17.26 1.611h-.524V.021H3.226v4.29a6.734 6.734 0 0 0 2.162 4.954h9.185a6.786 6.786 0 0 0 1.6-2.253h1.088c1.489 0 2.7-1.211 2.7-2.7 0-1.49-1.211-2.7-2.7-2.7zm0 4.215h-.696a6.775 6.775 0 0 0 .172-1.514V2.797h.525c.835 0 1.514.68 1.514 1.515 0 .835-.68 1.514-1.514 1.514z"/>
        <path d="M12.806 10.45H0v.198a2.588 2.588 0 0 0 2.585 2.586h14.79a2.588 2.588 0 0 0 2.586-2.586v-.197h-7.155z"/>
    </g>
</symbol><symbol id="icon-calendar-2" viewBox="0 0 16 16">
    <title>
        small-calendar
    </title>
    <path d="M14.667 1.5c.736 0 1.333.596 1.333 1.333v11.833c0 .737-.597 1.334-1.333 1.334H1.333A1.333 1.333 0 0 1 0 14.666V2.833C0 2.096.597 1.5 1.333 1.5H3.5v-1a.5.5 0 1 1 1 0v1h3v-1a.5.5 0 1 1 1 0v1h3v-1a.5.5 0 1 1 1 0v1h2.167zM3.5 6v1.5h2V6h-2zm0 2.5V10h2V8.5h-2zm0 2.5v1.5h2V11h-2zM7 11v1.5h2V11H7zm0-2.5V10h2V8.5H7zM7 6v1.5h2V6H7zm3.5 5v1.5h2V11h-2zm0-2.5V10h2V8.5h-2zm0-2.5v1.5h2V6h-2z" fill-rule="nonzero"/>
</symbol><symbol id="icon-calendar" viewBox="0 0 15 16">
    <title>
        small-calendar
    </title>
    <g fill-rule="nonzero">
        <path d="M13.75 1.5H11.72v-1c0-.276-.21-.5-.469-.5-.26 0-.469.224-.469.5v1H7.97v-1c0-.276-.21-.5-.469-.5s-.469.224-.469.5v1H4.22v-1c0-.276-.21-.5-.469-.5s-.469.224-.469.5v1h-2.03C.56 1.5 0 2.096 0 2.833v11.833C0 15.403.56 16 1.25 16h12.5c.69 0 1.25-.597 1.25-1.334V2.833c0-.737-.56-1.333-1.25-1.333zm-.054 12.847c0 .176-.133.32-.295.32H1.6c-.163 0-.296-.144-.296-.32V2.987c0-.177.133-.32.296-.32h1.917v.96c0 .265.198.48.443.48.244 0 .442-.215.442-.48v-.96h2.655v.96c0 .265.199.48.443.48s.443-.215.443-.48v-.96h2.655v.96c0 .265.198.48.442.48.245 0 .443-.215.443-.48v-.96H13.4c.162 0 .295.143.295.32v11.36z"/>
        <path d="M3.261 6h1.957v1.333H3.261z"/>
        <path d="M3.261 8.667h1.957V10H3.261z"/>
        <path d="M3.261 11.333h1.957v1.333H3.261z"/>
        <path d="M6.522 11.333h1.957v1.333H6.522z"/>
        <path d="M6.522 8.667h1.957V10H6.522z"/>
        <path d="M6.522 6h1.957v1.333H6.522z"/>
        <path d="M9.783 11.333h1.957v1.333H9.783z"/>
        <path d="M9.783 8.667h1.957V10H9.783z"/>
        <path d="M9.783 6h1.957v1.333H9.783z"/>
    </g>
</symbol><symbol id="icon-checkbox" viewBox="0 0 10 8">
    <title>
        Shape
    </title>
    <path d="M9.618 1.49L3.8 7.528a.33.33 0 0 1-.255.11c-.109 0-.218-.037-.254-.11L.455 4.473.382 4.4a.393.393 0 0 1-.11-.255c0-.072.037-.181.11-.254l.509-.51a.352.352 0 0 1 .509 0l.036.037 2 2.146a.176.176 0 0 0 .255 0L8.564.509H8.6a.352.352 0 0 1 .51 0l.508.51c.146.108.146.326 0 .472z" fill-rule="nonzero"/>
</symbol><symbol id="icon-chevron-down" viewBox="0 0 16 16">
    <title>
        thin-arrowheads-pointing-down
    </title>
    <g fill-rule="nonzero">
        <path d="M7.47 9.639a.496.496 0 0 0 .721 0l7.313-7.313a.496.496 0 0 0 0-.722L14.72.82a.496.496 0 0 0-.722 0L7.83 6.987 1.663.819a.496.496 0 0 0-.722 0l-.784.785a.495.495 0 0 0 0 .722l7.312 7.313z"/>
        <path d="M14.72 6.845a.496.496 0 0 0-.722 0L7.83 13.012 1.663 6.845a.496.496 0 0 0-.722 0l-.784.785a.496.496 0 0 0 0 .722l7.312 7.313a.496.496 0 0 0 .722 0l7.313-7.313a.496.496 0 0 0 0-.722l-.784-.785z"/>
    </g>
</symbol><symbol id="icon-close-in-circle" viewBox="0 0 16 16">
    <title>
        cancel
    </title>
    <g fill-rule="nonzero">
        <path d="M8 16c4.406 0 8-3.58 8-8s-3.594-8-8-8C3.594 0 0 3.594 0 8c0 4.406 3.594 8 8 8zM8 1.13c3.787 0 6.87 3.083 6.87 6.87S11.788 14.87 8 14.87 1.13 11.788 1.13 8 4.212 1.13 8 1.13z"/>
        <path d="M5.157 10.843a.522.522 0 0 0 .378.157.522.522 0 0 0 .378-.157L8 8.757l2.087 2.086a.522.522 0 0 0 .378.157.535.535 0 0 0 .378-.913L8.757 8l2.086-2.087a.535.535 0 0 0-.756-.756L8 7.243 5.913 5.157a.535.535 0 0 0-.756.756L7.243 8l-2.086 2.087a.535.535 0 0 0 0 .756z"/>
    </g>
</symbol><symbol id="icon-close" viewBox="0 0 16 16">
    <title>
        Shape
    </title>
    <path d="M10.301 8.256a.353.353 0 0 1 0-.512l5.48-5.48a.79.79 0 0 0 .219-.51.79.79 0 0 0-.22-.512L14.759.219A.79.79 0 0 0 14.247 0a.663.663 0 0 0-.512.22l-5.48 5.479a.353.353 0 0 1-.51 0L2.264.219A.79.79 0 0 0 1.753 0a.79.79 0 0 0-.511.22L.219 1.241A.79.79 0 0 0 0 1.753a.79.79 0 0 0 .22.512l5.479 5.48a.353.353 0 0 1 0 .51l-5.48 5.48a.79.79 0 0 0-.219.512.79.79 0 0 0 .22.511l1.022 1.023a.79.79 0 0 0 .511.219.79.79 0 0 0 .512-.22l5.48-5.479a.353.353 0 0 1 .51 0l5.48 5.48a.79.79 0 0 0 .512.219.79.79 0 0 0 .511-.22l1.023-1.022a.79.79 0 0 0 .219-.511.79.79 0 0 0-.22-.512l-5.479-5.48z" fill-rule="nonzero"/>
</symbol><symbol id="icon-disability" viewBox="0 0 9 11">
    <title>
        disabled
    </title>
    <g fill-rule="nonzero">
        <path d="M3.987 2.168a1.084 1.084 0 1 0-.001-2.169 1.084 1.084 0 0 0 0 2.169z"/>
        <path d="M5.662 8.31a2.4 2.4 0 0 1-2.302 1.735A2.4 2.4 0 0 1 .963 7.648a2.4 2.4 0 0 1 1.432-2.192V4.44A3.356 3.356 0 0 0 .008 7.648 3.355 3.355 0 0 0 3.36 11c1.347 0 2.508-.8 3.04-1.948l-.378-.744-.36.003z"/>
        <path d="M8.82 9.597L7.368 6.742a.636.636 0 0 0-.567-.348H4.94V5.97h1.6c.16 0 .295-.083.381-.204a.466.466 0 0 0 .097-.273.477.477 0 0 0-.477-.478H4.94V3.577c0-.395-.293-.955-.954-.955a.955.955 0 0 0-.955.955v3.116c0 .538.436.974.974.974H6.41l1.275 2.507a.636.636 0 1 0 1.135-.577z"/>
    </g>
</symbol><symbol id="icon-dumbbell" viewBox="0 0 16 16">
    <title>
        Shape
    </title>
    <path d="M15.558 4.38l-.992-.992.992-.993a.468.468 0 0 0 0-.661L14.235.41a.468.468 0 0 0-.662 0l-.992.993-.993-.993a1.405 1.405 0 0 0-1.985 0l-.387.388a1.404 1.404 0 0 0-1.598.274l-.661.662a.468.468 0 0 0 0 .661l2.315 2.316-4.56 4.561-2.317-2.315a.468.468 0 0 0-.661 0l-.662.661a1.406 1.406 0 0 0-.274 1.598l-.388.387a1.405 1.405 0 0 0 0 1.985l.993.993-.993.992a.468.468 0 0 0 0 .662l1.324 1.323a.468.468 0 0 0 .661 0l.993-.992.993.992a1.405 1.405 0 0 0 1.985 0l.387-.387c.518.249 1.163.16 1.598-.274l.661-.662a.468.468 0 0 0 0-.662l-2.316-2.315 4.561-4.562 2.316 2.316a.468.468 0 0 0 .662 0l.662-.661a1.406 1.406 0 0 0 .274-1.598l.387-.387a1.405 1.405 0 0 0 0-1.985zm-1.654-2.977l.662.662-.662.661-.662-.661.662-.662zM2.064 14.566l-.661-.662.662-.662.661.662-.661.662zm3.64.33a.468.468 0 0 1-.662 0l-3.97-3.97a.468.468 0 0 1 0-.661l.331-.33 4.632 4.63-.331.332zm2.316-.992l-.331.331a.468.468 0 0 1-.662 0L1.734 8.942a.468.468 0 0 1 0-.662l.33-.33c.207.205 5.852 5.85 5.956 5.954zm-1.985-3.308l-.662-.662 4.561-4.561.662.662-4.561 4.56zm8.2-2.907l-.33.33-3.64-3.638-2.316-2.316.33-.331a.468.468 0 0 1 .663 0l5.293 5.293a.468.468 0 0 1 0 .662zm.662-1.985l-.331.33-4.632-4.631.331-.33a.468.468 0 0 1 .662 0l3.97 3.97a.468.468 0 0 1 0 .66z" fill-rule="nonzero"/>
</symbol><symbol id="icon-edit" viewBox="0 0 16 16">
    <title>
        Shape
    </title>
    <path d="M15.868 3.157l-1.486 1.487-3.026-3.026-1.148 1.148 3.026 3.026-7.422 7.422-3.026-3.025-1.148 1.148 3.026 3.025-.74.74-.014-.014a.586.586 0 0 1-.374.269l-2.822.629a.583.583 0 0 1-.542-.158.586.586 0 0 1-.158-.543l.63-2.82a.588.588 0 0 1 .268-.375l-.014-.014L12.842.131a.45.45 0 0 1 .635 0l2.392 2.392a.449.449 0 0 1 0 .634z" fill-rule="nonzero"/>
</symbol><symbol id="icon-facebook" viewBox="0 0 20 20">
    <title>
        facebook
    </title>
    <path d="M1.104 0C.494 0 0 .494 0 1.104v17.792C0 19.506.494 20 1.104 20h9.579v-7.745H8.076V9.237h2.607V7.01c0-2.584 1.577-3.99 3.882-3.99 1.104 0 2.052.082 2.329.119v2.7h-1.598c-1.254 0-1.496.596-1.496 1.47v1.927h2.989l-.39 3.018h-2.6V20h5.097c.61 0 1.104-.494 1.104-1.104V1.104C20 .494 19.506 0 18.896 0H1.104z" fill-rule="evenodd"/>
</symbol><symbol id="icon-food-2" viewBox="0 0 16 13">
    <title>
        dinner
    </title>
    <g fill-rule="nonzero">
        <path d="M8.256.84a5.299 5.299 0 1 0 0 10.598 5.299 5.299 0 0 0 0-10.597zm0 9.32a4.025 4.025 0 0 1-4.02-4.02 4.025 4.025 0 0 1 4.02-4.02 4.025 4.025 0 0 1 4.02 4.02 4.025 4.025 0 0 1-4.02 4.02z"/>
        <path d="M8.256 3.197A2.946 2.946 0 0 0 5.313 6.14a2.946 2.946 0 0 0 2.943 2.943 2.946 2.946 0 0 0 2.942-2.943 2.946 2.946 0 0 0-2.942-2.943z"/>
        <path d="M15.666 6.584V.145a.145.145 0 0 0-.26-.087 6.094 6.094 0 0 0-1.238 3.682v2.355c0 .27.219.49.49.49h.203c-.201 2.076-.334 4.98-.334 5.32 0 .536.33.97.737.97.406 0 .736-.435.736-.97 0-.34-.133-3.245-.334-5.321z"/>
        <path d="M2.138 5.308c.408-.247.68-.695.68-1.206l-.202-3.3a.239.239 0 0 0-.476.026l.131 2.647a.27.27 0 0 1-.539 0L1.667.829a.258.258 0 0 0-.516 0l-.065 2.646a.27.27 0 0 1-.54 0L.679.828A.239.239 0 0 0 .202.8L0 4.101c0 .512.272.96.68 1.207.265.16.413.46.379.769-.23 2.074-.386 5.46-.386 5.828 0 .536.33.97.736.97.407 0 .736-.434.736-.97 0-.369-.156-3.754-.386-5.828a.797.797 0 0 1 .379-.77z"/>
    </g>
</symbol><symbol id="icon-indicator" viewBox="0 0 262 9">
    <title>
        Line Copy 9
    </title>
    <path d="M0 2V0h123.062l7.86 5.76L139.104 0H262v2H139.738l-8.84 6.223L122.408 2z" fill-rule="nonzero"/>
</symbol><symbol id="icon-infant" viewBox="0 0 8 11">
    <title>
        Shape
    </title>
    <path d="M5.66 6.967S6.753 8.02 6.756 8.021c.348.338.258.932-.072 1.255l-1.522 1.528c-.588.565-1.374-.219-.803-.766l.965-.931-.945-.904L5.66 6.967zm-3.394 0l-1.09 1.054c-.35.338-.26.932.066 1.255l1.529 1.528c.586.565 1.372-.219.804-.766l-.965-.931.939-.904-1.283-1.236zm1.735-3.916c.875 0 1.584-.681 1.584-1.528C5.585.683 4.875 0 4.001 0c-.875 0-1.585.682-1.585 1.523 0 .846.71 1.528 1.585 1.528zm1.716 3.305l.024-1.04 1.316 1.183a.562.562 0 0 0 .382.144c.15 0 .3-.057.41-.17.211-.22.2-.56-.027-.764 0 0-1.509-1.58-1.726-1.764-.402-.343-.99-.537-1.946-.537h-.3c-.956 0-1.544.194-1.947.537C1.687 4.129.178 5.709.178 5.709a.527.527 0 0 0-.027.764c.11.113.26.17.41.17A.565.565 0 0 0 .944 6.5L2.26 5.316l.023 1.04h3.435z" fill-rule="nonzero"/>
</symbol><symbol id="icon-info-2" viewBox="0 0 14 14">
    <title>
        Shape
    </title>
    <path d="M11.95 2.05a7 7 0 1 0-9.9 9.899 7 7 0 0 0 9.9-9.898V2.05zm-4.037 7.994a.913.913 0 1 1-1.826 0V6.39a.913.913 0 1 1 1.826 0v3.654zm-.93-5.213c-.525 0-.876-.373-.865-.833-.01-.482.34-.843.876-.843.537 0 .877.362.888.843 0 .46-.35.833-.898.833h-.001z" fill-rule="nonzero"/>
</symbol><symbol id="icon-info" viewBox="0 0 24 24">
    <title>
        information
    </title>
    <g fill-rule="evenodd">
        <path d="M10.63 7.825c.044.087.088.175.132.24.043.067.11.132.153.198.066.066.132.132.22.197.065.044.153.11.262.132a1.348 1.348 0 0 0 .57.11c.088 0 .197 0 .285-.023.088-.021.175-.043.241-.087h.022c.088-.044.175-.088.263-.154.066-.043.132-.11.197-.175l.022-.022c.066-.066.11-.131.154-.197s.087-.132.11-.22c0-.021 0-.021.021-.043.044-.088.066-.197.088-.285.022-.088.022-.197.022-.285 0-.088 0-.197-.022-.285a2.036 2.036 0 0 0-.088-.285 1.244 1.244 0 0 0-.263-.394l-.044-.044c-.065-.066-.131-.11-.219-.176-.088-.043-.153-.087-.24-.131-.089-.044-.176-.066-.264-.088-.11-.022-.197-.022-.285-.022-.088 0-.197 0-.285.022a1.236 1.236 0 0 0-.263.088h-.022a2.39 2.39 0 0 0-.24.131c-.089.066-.154.11-.22.176a1.418 1.418 0 0 0-.175.197c-.044.066-.088.153-.132.241-.044.088-.066.175-.088.263-.021.11-.021.197-.021.285 0 .088 0 .197.021.285.022.175.066.263.088.35z"/>
        <path d="M13.677 15.847h-.504v-5.37a.566.566 0 0 0-.57-.57H10.3a.566.566 0 0 0-.57.57v1.183c0 .307.242.57.57.57h.46v3.638h-.46a.566.566 0 0 0-.57.57v1.184c0 .307.242.57.57.57h3.376c.307 0 .57-.241.57-.57v-1.184a.585.585 0 0 0-.57-.591z"/>
        <path d="M11.989 0C5.369 0 0 5.37 0 11.989c0 6.62 5.37 11.99 11.989 11.99 6.62 0 11.99-5.37 11.99-11.99S18.608 0 11.988 0zm0 21.4c-5.19 0-9.41-4.22-9.41-9.411 0-5.19 4.22-9.41 9.41-9.41s9.411 4.22 9.411 9.41-4.22 9.411-9.411 9.411z" fill-rule="nonzero"/>
    </g>
</symbol><symbol id="icon-instagram" viewBox="0 0 20 20">
    <title>
        instagram
    </title>
    <g fill-rule="evenodd">
        <path d="M14.586 0H5.414A5.42 5.42 0 0 0 0 5.414v9.172A5.42 5.42 0 0 0 5.414 20h9.172A5.42 5.42 0 0 0 20 14.586V5.414A5.42 5.42 0 0 0 14.586 0zM10 15.469A5.475 5.475 0 0 1 4.531 10 5.475 5.475 0 0 1 10 4.531 5.475 5.475 0 0 1 15.469 10 5.475 5.475 0 0 1 10 15.469zm5.6-9.648a1.618 1.618 0 0 1-1.617-1.616c0-.89.725-1.616 1.616-1.616.891 0 1.616.725 1.616 1.616 0 .891-.725 1.616-1.616 1.616z" fill-rule="nonzero"/>
        <path d="M10 5.704A4.301 4.301 0 0 0 5.704 10 4.301 4.301 0 0 0 10 14.296 4.301 4.301 0 0 0 14.296 10 4.3 4.3 0 0 0 10 5.704z"/>
        <path d="M15.6 3.762a.444.444 0 1 0 0 .888.444.444 0 0 0 0-.888z"/>
    </g>
</symbol><symbol id="icon-keyboard" viewBox="0 0 24 20">
    <title>
        keyboard
    </title>
    <g fill-rule="nonzero">
        <path d="M23.29 4.564H12.685V2.997A2.956 2.956 0 0 0 9.732.045H.692a.692.692 0 1 0 0 1.384h9.04a1.57 1.57 0 0 1 1.567 1.568v1.567H.692A.692.692 0 0 0 0 5.257v13.558c0 .383.31.693.692.693h22.599c.382 0 .692-.31.692-.693V5.257a.692.692 0 0 0-.692-.693zm-.692 13.56H1.385V5.948h21.213v12.174z"/>
        <path d="M10.424 9.084V7.239a.692.692 0 0 0-1.385 0v1.845H5.904V7.239a.692.692 0 1 0-1.384 0v1.845H2.675a.692.692 0 1 0 0 1.385H4.52v3.134H2.675a.692.692 0 1 0 0 1.385H4.52v1.845a.692.692 0 1 0 1.384 0v-1.845H18.08v1.845a.692.692 0 1 0 1.384 0v-1.845h1.845a.692.692 0 0 0 0-1.385h-1.845V10.47h1.845a.692.692 0 0 0 0-1.385h-1.845V7.239a.692.692 0 1 0-1.384 0v1.845h-3.135V7.239a.692.692 0 1 0-1.385 0v1.845h-3.135zm3.135 1.385v3.134h-3.135V10.47h3.135zm-7.655 0H9.04v3.134H5.904V10.47zm12.175 0v3.134h-3.135V10.47h3.135z"/>
    </g>
</symbol><symbol id="icon-list" viewBox="0 0 18 15">
    <path d="M1.5 0a1.5 1.5 0 1 1 0 3 1.5 1.5 0 0 1 0-3zm0 6a1.5 1.5 0 1 1 0 3 1.5 1.5 0 0 1 0-3zm0 6a1.5 1.5 0 1 1 0 3 1.5 1.5 0 0 1 0-3zM6.75 1h10.5a.75.75 0 1 1 0 1.5H6.75a.75.75 0 0 1 0-1.5zm0 6h10.5a.75.75 0 1 1 0 1.5H6.75a.75.75 0 0 1 0-1.5zm0 6h10.5a.75.75 0 1 1 0 1.5H6.75a.75.75 0 1 1 0-1.5z" fill-rule="evenodd"/>
</symbol><symbol id="icon-log-in" viewBox="0 0 22 24">
    <title>
        web-log-in
    </title>
    <g fill-rule="nonzero">
        <path d="M11.41 11.095L9.652 9.378a1.067 1.067 0 0 1 0-1.532 1.1 1.1 0 0 1 1.534 0l3.645 3.56c.432.422.432 1.111 0 1.533l-3.645 3.56a1.096 1.096 0 0 1-.767.311c-.284 0-.56-.109-.767-.311a1.068 1.068 0 0 1 0-1.532l1.758-1.717H1.59c-.6 0-1.091-.48-1.091-1.077 0-.598.491-1.078 1.091-1.078h9.819z"/>
        <path d="M6 2V0h14a2 2 0 0 1 2 2v20a2 2 0 0 1-2 2H6v-2h14V2H6z"/>
    </g>
</symbol><symbol id="icon-log-out" viewBox="0 0 23 22">
    <title>
        Group 14
    </title>
    <g fill-rule="nonzero">
        <path d="M4.166 13.234l-.963.96L0 11l3.203-3.194.963.96-1.56 1.556H14.46v1.356H2.605z"/>
        <path d="M6.677 0v7.825h1.85v-6.1h12.046v18.581H8.527v-6.13h-1.85V22H22.38V0z"/>
    </g>
</symbol><symbol id="icon-logo-small" viewBox="0 0 31 27">
    <title>
        Group Copy
    </title>
    <g fill-rule="evenodd">
        <path d="M7.244 26.202a8.413 8.413 0 0 1-2.204-.623C2.05 24.25.135 21.189.046 17.589-.13 10.403 5.8 1.272 6.041.903c.5-.762 1.194-.966 1.831-.36.77.734 1.144 1.645.645 2.406l-.37.57C8.092 3.6 3.12 11.31 3.27 17.437c.059 2.373 1.128 4.515 3.109 5.127 3.195.987 5.485.232 8.431-2.299C21.828 14.24 28.076.792 28.12.692c.363-.834 1.108-.872 1.806-.34.79.603 1.262 1.429.9 2.264-.188.436-6.349 13.602-13.963 20.14-3.935 3.382-7.352 3.773-9.618 3.446"/>
        <path d="M12.717 7.323l.047.007a1.832 1.832 0 0 0 2.049-1.6 1.955 1.955 0 0 0-1.65-2.156l-.047-.006a1.82 1.82 0 0 0-2.05 1.6 1.955 1.955 0 0 0 1.651 2.155"/>
        <path d="M19.795 7.324l.047.006c.49.06.973-.073 1.357-.372.386-.3.632-.737.692-1.228a1.955 1.955 0 0 0-1.651-2.156l-.046-.006a1.82 1.82 0 0 0-2.05 1.6 1.954 1.954 0 0 0 1.65 2.156"/>
    </g>
</symbol><symbol id="icon-logo-text" viewBox="0 0 162 30">
    <title>
        logo
    </title>
    <g fill-rule="evenodd">
        <path d="M10.271 5.056c1.888 0 3.84.601 5.599 1.706l.8-5.15A12.868 12.868 0 0 0 10.368 0C6.239 0 2.56 1.801 1.887 6.005c-1.183 7.584 8.544 7.204 8.065 10.206-.161 1.138-1.665 1.612-3.265 1.612-2.015 0-4.159-.664-5.791-1.705L0 21.52c2.048 1.011 4.191 1.487 6.88 1.487 4.479 0 8.062-1.675 8.8-6.163 1.28-7.964-8.64-7.237-8.224-10.27.191-1.075 1.311-1.518 2.815-1.518"/>
        <path d="M39.245 7.935l-3.122 8.413-1.121-8.413h-8.914l-3.152 5.175h-1.092l1.88-11.832h-4.972l-3.364 21.183h4.97l.82-5.084h1.09l1.758 5.084h5.214l-2.546-6.96 3.546-5.43 2.79 12.33c-.605 1.21-1 1.724-1.545 2.119-.636.393-1.364.574-2.394.363l-.667 4.236c2.152.545 4.001.272 5.486-.665 1.364-.878 2.456-2.241 3.304-4.116l7.668-16.403h-5.637z"/>
        <path d="M62.835 1.278H57.65L55.49 15.185c-.299 1.917-1.408 2.83-3.207 2.83-1.588 0-2.398-.73-2.099-2.587l2.22-14.15h-5.158l-2.248 14.363c-.748 4.717 2.189 7.366 6.835 7.366 5.037 0 7.944-2.13 8.694-7.091l2.308-14.638z"/>
        <path d="M71.406 7.669c-1.79 0-2.925.913-3.61 1.856l.207-1.43h-4.418L60.27 29.397h4.897l1.224-7.79c.567.821 1.612 1.522 3.225 1.522 3.223 0 5.194-3.013 5.85-7.456.658-4.11-.297-8.004-4.06-8.004m-.716 7.7c-.357 2.404-1.045 3.469-2.24 3.469-.685 0-1.222-.426-1.461-1.065l.745-4.778c.449-.61 1.045-1.035 1.762-1.035 1.224 0 1.523 1.308 1.194 3.408"/>
        <path d="M92.851 1.278l-10.78 21.729H84L86.9 17.2h9.006l.997 5.806h1.839L94.876 1.278h-2.025zm-5.14 14.217l4.736-9.53c.435-.932.778-1.676 1.153-2.577.123.87.186 1.677.342 2.515l1.683 9.592H87.71z"/>
        <path d="M100.023 23.007h1.632l2.215-15.338h-1.631z"/>
        <path d="M103.957 2.556c-.625 0-1.218.404-1.35 1.178-.132.907.428 1.379 1.153 1.379.624 0 1.25-.338 1.381-1.144.099-.874-.46-1.413-1.184-1.413"/>
        <path d="M114.129 7.676c-2.319-.094-4.369.751-5.617 3.16l.445-2.848h-1.545l-2.26 15.019h1.695l1.397-9.106c1.189-3.284 3.27-4.63 5.588-4.443l.297-1.782z"/>
        <path d="M117.588 0l-3.459 23.007h1.67L119.259 0z"/>
        <path d="M119.258 23.007h1.632l2.215-15.338h-1.631z"/>
        <path d="M123.192 2.556c-.625 0-1.218.404-1.35 1.178-.132.907.428 1.379 1.152 1.379.626 0 1.251-.338 1.382-1.144.1-.874-.46-1.413-1.184-1.413"/>
        <path d="M133.092 7.669c-2.16 0-3.869 1-4.933 2.437l.355-2.093h-1.675l-2.451 14.994h1.837l1.709-10.465c.87-1.656 2.612-3.248 4.675-3.248 1.838 0 3.096 1.092 2.676 3.56l-1.644 10.153h1.837l1.644-10.122c.516-3.155-1.257-5.216-4.03-5.216"/>
        <path d="M145.58 7.669c-3.502 0-6.226 2.903-6.943 7.546-.72 4.735 1.286 7.792 5.627 7.792 1.137 0 2.364-.214 3.532-.765l.269-1.68c-1.198.58-2.365.825-3.652.825-2.843 0-4.43-1.62-4.16-5.195h9.338c1.257-4.857-.18-8.523-4.01-8.523m2.634 6.996h-7.723c.42-1.924 1.796-5.346 5.029-5.346 2.424 0 3.292 2.108 2.694 5.346"/>
        <path d="M157.436 9.227c1.467 0 2.706.336 3.847 1.07l.293-1.62c-1.142-.641-2.609-1.008-4.238-1.008-2.804 0-5.152 1.222-5.542 3.574-.85 5.012 7.726 4.279 7.107 7.883-.294 1.62-1.924 2.291-4.075 2.291-1.761 0-3.293-.397-4.5-1.222l-.293 1.65c1.141.765 2.804 1.162 4.824 1.162 2.837 0 5.38-.978 5.836-3.635.88-5.104-7.726-4.218-7.107-7.853.294-1.528 1.89-2.292 3.848-2.292"/>
    </g>
</symbol><symbol id="icon-minus" viewBox="0 0 13 3">
    <title>
        Rectangle
    </title>
    <path d="M0 0h13v3H0z" fill-rule="evenodd"/>
</symbol><symbol id="icon-plane" viewBox="0 0 40 41">
    <title>
        Fill 23
    </title>
    <path d="M23.193 22.525l9.34 17.188a.911.911 0 0 0 1.445.209l.732-.732a.262.262 0 0 0-.219-.446l-3.795-15.656s1.13-.514 2.142-1.238c.692-.495.783-1.504.168-2.091l-.046-.043a1.37 1.37 0 0 0-1.863.006c-.33.308-.7.694-.97 1.089l-1.062-4.377a1.53 1.53 0 0 1 .383-1.421l8.744-9.1s.95-1.328 1.233-2.182c.285-.854.428-2.515.095-2.846-.332-.333-1.992-.19-2.846.094-.854.285-2.183 1.234-2.183 1.234l-9.099 8.744a1.53 1.53 0 0 1-1.421.383l-4.377-1.062c.395-.27.78-.64 1.09-.97a1.37 1.37 0 0 0 .005-1.863l-.043-.046c-.587-.615-1.596-.524-2.091.168-.725 1.012-1.238 2.142-1.238 2.142L1.66 5.913a.262.262 0 0 0-.446-.218l-.732.732a.911.911 0 0 0 .21 1.445l17.188 9.34c.34.184.412.642.143.92l-4.265 4.434c-1.954 2.033-3.844 4.71-4.45 5.59a.554.554 0 0 1-.552.232l-7-1.22a.224.224 0 0 0-.38-.19l-.559.559a1.125 1.125 0 0 0 .25 1.779l5.08 2.822c.25.139.351.445.237.709-.15.346-.266.658-.354.92a.48.48 0 0 0 .608.608c.262-.089.574-.205.92-.355a.556.556 0 0 1 .709.239l2.822 5.08c.363.653 1.25.777 1.78.248l.558-.558a.224.224 0 0 0-.19-.38l-1.22-7a.555.555 0 0 1 .232-.553c.88-.605 3.557-2.495 5.59-4.45l4.433-4.264a.586.586 0 0 1 .921.143" fill-rule="evenodd"/>
</symbol><symbol id="icon-plus" viewBox="0 0 13 13">
    <title>
        Group 7
    </title>
    <g fill-rule="evenodd">
        <path d="M0 5h13v3H0z"/>
        <path d="M5 0h3v13H5z"/>
    </g>
</symbol><symbol id="icon-search-2" viewBox="0 0 14 14">
    <title>
        Shape
    </title>
    <path d="M13.657 12.003L10.616 8.96c-.016-.016-.035-.027-.052-.042a5.756 5.756 0 1 0-1.645 1.645c.015.017.026.036.042.052l3.042 3.041a1.17 1.17 0 0 0 1.654-1.654zM5.756 9.516a3.76 3.76 0 1 1 0-7.52 3.76 3.76 0 0 1 0 7.52z" fill-rule="nonzero"/>
</symbol><symbol id="icon-seat-belt" viewBox="0 0 21 8">
    <title>
        seat-belt
    </title>
    <g fill-rule="nonzero">
        <path d="M13.53 2.226l-2.77-.682v-.028C10.76.68 10.08 0 9.245 0H6.418c-.8 0-1.456.624-1.51 1.411H.666c-.367 0-.666.3-.666.667v3.844c0 .368.299.667.666.667h4.242C4.962 7.376 5.618 8 6.418 8h2.828c.834 0 1.513-.68 1.513-1.516v-.028l2.771-.683a.728.728 0 0 0 .569-.71V2.937a.728.728 0 0 0-.569-.71zM4.904 5.363h-3.68V2.637h3.68v2.726zm4.63 1.121c0 .16-.129.29-.288.29H6.418a.29.29 0 0 1-.29-.29V1.516c0-.16.13-.29.29-.29h2.828c.159 0 .289.13.289.29v4.968zm3.34-1.812l-2.115.521v-.58h.587a.613.613 0 0 0 0-1.226h-.587v-.58l2.115.52v1.345z"/>
        <path d="M19.396 0h-2.831c-.836 0-1.515.68-1.515 1.516v4.968c0 .836.68 1.516 1.515 1.516h2.83c.836 0 1.516-.68 1.516-1.516V1.516C20.91.68 20.23 0 19.396 0zm.289 6.484c0 .16-.13.29-.29.29h-2.83a.29.29 0 0 1-.29-.29V1.516c0-.16.13-.29.29-.29h2.83c.16 0 .29.13.29.29v4.968z"/>
    </g>
</symbol><symbol id="icon-send-plane" viewBox="0 0 21 21">
    <title>
        Shape
    </title>
    <path d="M1.418 20.384l19-8.74a1 1 0 0 0 .012-1.81L1.43.782A1 1 0 0 0 0 1.685v6.494a1 1 0 0 0 .897.995l15.236 1.578L.919 11.993A1 1 0 0 0 0 12.99v6.486a1 1 0 0 0 1.418.908z" fill-rule="nonzero"/>
</symbol><symbol id="icon-settings" viewBox="0 0 22 22">
    <title>
        settings-2
    </title>
    <g fill-rule="nonzero">
        <path d="M20.861 8.685l-1.543-.262a8.714 8.714 0 0 0-.62-1.497l.91-1.272a1.354 1.354 0 0 0-.148-1.75l-1.369-1.369a1.348 1.348 0 0 0-1.745-.147l-1.277.91a8.623 8.623 0 0 0-1.552-.639l-.257-1.525A1.357 1.357 0 0 0 11.919 0H9.985c-.666 0-1.23.478-1.341 1.134l-.267 1.562a8.5 8.5 0 0 0-1.492.63l-1.263-.91a1.348 1.348 0 0 0-.79-.253 1.34 1.34 0 0 0-.96.4L2.499 3.932a1.36 1.36 0 0 0-.147 1.75l.918 1.29a8.511 8.511 0 0 0-.61 1.502l-1.526.257A1.357 1.357 0 0 0 0 10.072v1.934c0 .666.478 1.23 1.134 1.341l1.562.266a8.5 8.5 0 0 0 .63 1.493l-.906 1.259a1.354 1.354 0 0 0 .147 1.75l1.37 1.368a1.348 1.348 0 0 0 1.744.147l1.291-.918c.464.243.95.44 1.451.597l.258 1.543c.11.657.675 1.134 1.34 1.134h1.939c.666 0 1.23-.477 1.341-1.134l.262-1.543a8.714 8.714 0 0 0 1.497-.62l1.272.909c.23.165.506.253.79.253.363 0 .703-.143.96-.4l1.369-1.369a1.36 1.36 0 0 0 .147-1.75l-.91-1.276c.253-.483.464-.983.62-1.498l1.544-.257a1.357 1.357 0 0 0 1.134-1.341v-1.934a1.34 1.34 0 0 0-1.125-1.34zm-.106 3.275c0 .06-.041.11-.1.12l-1.93.32a.617.617 0 0 0-.496.456 7.352 7.352 0 0 1-.799 1.924.621.621 0 0 0 .028.675l1.134 1.598a.125.125 0 0 1-.014.157l-1.368 1.368a.117.117 0 0 1-.088.037.113.113 0 0 1-.069-.023l-1.593-1.134a.62.62 0 0 0-.675-.028 7.352 7.352 0 0 1-1.925.8.61.61 0 0 0-.455.495l-.326 1.93a.119.119 0 0 1-.12.1h-1.933a.119.119 0 0 1-.12-.1l-.32-1.93a.617.617 0 0 0-.455-.496 7.635 7.635 0 0 1-1.883-.771.636.636 0 0 0-.313-.083.605.605 0 0 0-.358.115L4.97 18.633a.137.137 0 0 1-.07.023.123.123 0 0 1-.087-.036L3.445 17.25a.125.125 0 0 1-.014-.156l1.13-1.585a.629.629 0 0 0 .027-.68 7.283 7.283 0 0 1-.808-1.92.629.629 0 0 0-.496-.454l-1.943-.33a.119.119 0 0 1-.1-.12v-1.934c0-.06.04-.11.1-.12l1.915-.32a.621.621 0 0 0 .501-.46c.17-.675.432-1.327.785-1.929a.613.613 0 0 0-.032-.67L3.367 4.964a.125.125 0 0 1 .013-.156L4.75 3.44a.117.117 0 0 1 .086-.037c.028 0 .05.01.07.023l1.584 1.13a.629.629 0 0 0 .68.028 7.283 7.283 0 0 1 1.92-.809.629.629 0 0 0 .454-.496l.33-1.942c.01-.06.06-.101.12-.101h1.934c.06 0 .11.04.12.1l.32 1.916c.042.243.221.44.46.5a7.455 7.455 0 0 1 1.97.809.621.621 0 0 0 .675-.028l1.585-1.139a.137.137 0 0 1 .069-.023c.018 0 .055.005.087.037l1.369 1.369a.125.125 0 0 1 .014.156l-1.135 1.594a.62.62 0 0 0-.027.675c.358.601.624 1.249.799 1.924a.61.61 0 0 0 .496.455l1.929.326c.06.01.1.06.1.12v1.933h-.004z"/>
        <path d="M10.995 6.246a4.747 4.747 0 0 0-4.744 4.745 4.747 4.747 0 0 0 4.744 4.744 4.747 4.747 0 0 0 4.745-4.744 4.747 4.747 0 0 0-4.745-4.745zm0 8.25a3.507 3.507 0 0 1-3.504-3.505 3.507 3.507 0 0 1 3.504-3.505 3.507 3.507 0 0 1 3.505 3.505 3.507 3.507 0 0 1-3.505 3.504z"/>
    </g>
</symbol><symbol id="icon-skyup-bot" viewBox="0 0 126 126">
    <title>
        Group 2
    </title>
    
    <g transform="translate(1 1)" fill-rule="evenodd">
        <circle cx="62" cy="62" r="62.5"/>
        <path d="M46.494 39.92c0-2.005 1.61-3.629 3.6-3.629 1.984 0 3.596 1.624 3.596 3.63 0 2.003-1.612 3.629-3.596 3.629-1.99-.001-3.6-1.627-3.6-3.63zM35.295 9.005h-.03v4.975h4.566V9.15a4.83 4.83 0 0 0 2.66-4.312C42.492 2.166 40.346 0 37.695 0c-2.65 0-4.799 2.166-4.799 4.839 0 1.788.97 3.33 2.4 4.166zm-9.99 34.544c1.984 0 3.596-1.626 3.596-3.63 0-2.005-1.612-3.629-3.597-3.629-1.99 0-3.6 1.624-3.6 3.629 0 2.004 1.61 3.63 3.6 3.63zM37.694 100c5.415 0 10.02-3.474 11.767-8.333H25.925c1.749 4.859 6.351 8.333 11.77 8.333zM.171 85.256a4.827 4.827 0 0 1 2.726-4.347V60.334c0-4.058 3.133-7.372 7.094-7.634v-9.957s.963-18.146 15.934-23.79c4.446-1.676 8.506-2.354 12.024-2.481 3.52.127 7.58.805 12.022 2.48 14.973 5.644 15.938 23.79 15.938 23.79v9.956c3.958.264 7.092 3.578 7.092 7.635V80.91a4.829 4.829 0 0 1 2.726 4.346c0 2.672-2.149 4.838-4.799 4.838-2.65 0-4.798-2.166-4.798-4.838a4.831 4.831 0 0 1 2.724-4.346V67.155a7.53 7.53 0 0 1-2.944.81v4.78c.027.387.058.77.058 1.166 0 .419-.027.833-.058 1.248v.11h-.005c-.64 7.965-6.819 14.345-14.651 15.215l.006.109H24.636l.01-.109c-7.833-.87-14.01-7.25-14.65-15.215h-.004v-.11c-.03-.415-.059-.83-.059-1.248 0-.395.03-.78.059-1.166v-4.78a7.51 7.51 0 0 1-2.948-.81v13.757a4.828 4.828 0 0 1 2.726 4.344c0 2.674-2.148 4.839-4.8 4.839-2.648 0-4.798-2.165-4.798-4.839zm55.731-16.71c-.1-.232-.26-.43-.484-.596-.224-.166-.475-.219-.731-.222-.251-.014-.856.076-1.149.326-.013.012-.033.01-.048 0a1.284 1.284 0 0 0-.334-.177.521.521 0 0 0-.26-.014c-.08.017-.134.05-.162.098a.823.823 0 0 0-.076.177l-1.619 3.528a81.092 81.092 0 0 0-1.282 2.954 46.401 46.401 0 0 0-1.063 2.926c-.031.092-.055.186-.086.28a.984.984 0 0 0-.05.295c-.002.137.071.28.22.428.12.117.255.189.407.217a.59.59 0 0 0 .406-.056.32.32 0 0 0 .129-.215c.015-.093.037-.18.067-.262.323-.978 1.325-3.597 1.804-4.727.006-.015.026-.019.036-.005.083.116.896.672 1.892.216.236-.108.447-.254.644-.417a4.88 4.88 0 0 0 1.1-1.317c.296-.513.527-1.05.694-1.61.08-.269.126-.56.135-.875a2.249 2.249 0 0 0-.19-.952zm-1.3 1.884c-.132.318-.369.787-.523 1.048-.259.44-.432.718-.77 1.049-.239.233-.506.367-.762.334-.22-.028-.437-.286-.453-.376.218-.53.618-1.438.839-1.948.424-.978 1.128-1.976 1.773-1.73.514.195.047 1.258-.104 1.623zm-8.897-2.706l.024.003a.93.93 0 0 0 1.043-.817.998.998 0 0 0-.84-1.102l-.024-.003a.927.927 0 0 0-1.044.817.998.998 0 0 0 .841 1.102zm3.13-.007l.023.003a.932.932 0 0 0 1.044-.818.998.998 0 0 0-.84-1.101l-.024-.003a.927.927 0 0 0-1.044.817.998.998 0 0 0 .84 1.102zm-5.021 7.881c.952.144 2.387-.028 4.04-1.52 3.198-2.883 5.786-8.69 5.865-8.882.152-.368-.046-.733-.378-.999-.293-.234-.606-.218-.758.15-.019.044-2.643 5.976-5.59 8.633-1.238 1.117-2.2 1.45-3.542 1.014-.832-.27-1.281-1.215-1.306-2.261-.063-2.703 2.026-6.103 2.048-6.139l.156-.25c.21-.336.052-.738-.271-1.062-.268-.267-.56-.177-.77.159-.101.162-2.592 4.19-2.517 7.358.037 1.588.84 2.939 2.097 3.524.21.098.525.215.926.275zm-2.794-6.995a.968.968 0 0 0-.246-.48.95.95 0 0 0-.438-.271c-.088-.023-.16-.018-.215.017a.498.498 0 0 0-.144.14c-.263.35-.507.717-.732 1.101-.225.385-.455.766-.692 1.145-.236.379-.487.751-.752 1.118a7.842 7.842 0 0 1-.88 1.023 1.188 1.188 0 0 1-.183.142c-.137.089-.32.14-.445.03-.093-.08-.092-.236-.051-.386v-.005c.047-.157.105-.311.173-.463a5.52 5.52 0 0 1 .16-.332l.198-.376c.072-.133.163-.29.272-.471l.406-.665c.16-.262.364-.585.61-.97.072-.104.087-.238.044-.402a.944.944 0 0 0-.258-.463.64.64 0 0 0-.474-.218.331.331 0 0 0-.244.148c-.06.088-.12.166-.18.237-.153.22-.327.483-.521.786-.194.303-.383.62-.566.952a9.32 9.32 0 0 0-.215.416.458.458 0 0 0-.054.074c-.05.087-.1.166-.148.236a33.45 33.45 0 0 0-.523.777c-.172.263-.37.51-.594.743a4.15 4.15 0 0 1-.324.332 1.781 1.781 0 0 1-.369.262.14.14 0 0 1-.075.018.14.14 0 0 1-.083-.026c-.025-.018-.042-.053-.053-.105a.532.532 0 0 1 .019-.219c.06-.221.089-.474.089-.76a2.36 2.36 0 0 0-.141-.813c.44-.198.806-.463 1.099-.795a6.859 6.859 0 0 0 .908-1.31c.042-.076.037-.167-.015-.272a1.196 1.196 0 0 0-.155-.227 1.567 1.567 0 0 0-.224-.218 1.038 1.038 0 0 0-.25-.149.404.404 0 0 0-.261-.017.293.293 0 0 0-.114.096.906.906 0 0 0-.075.131c-.267.384-.55.752-.85 1.101a3.086 3.086 0 0 1-.87.702.773.773 0 0 1-.48.085l.692-1.338c.244-.471.505-.949.782-1.433.278-.483.569-.955.872-1.415.304-.46.618-.894.942-1.302.04-.058.083-.117.129-.175.045-.058.059-.134.04-.227a.952.952 0 0 0-.24-.455.939.939 0 0 0-.424-.28c-.091-.034-.162-.037-.213-.008a.609.609 0 0 0-.154.131 23.709 23.709 0 0 0-.661.909c-.09.135-.179.272-.268.409-1.288-.498-2.892-.84-4.46-.746-1.957.117-3.436.624-4.396 1.508-.78.72-1.008 1.503-1.074 1.907-.065.397-.243 2.406 2.654 2.942.868.16 1.437.46 1.601.846.077.18.065.398-.037.647-.474 1.156-2.097 1.985-4.133 2.112-2.333.144-3.673-.449-3.686-.455a.659.659 0 0 0-.565.015.918.918 0 0 0-.435.45c-.187.405-.06.865.284 1.024.056.026 1.408.638 3.753.587.175-.004.354-.012.53-.023 2.729-.17 4.81-1.377 5.569-3.228.283-.69.303-1.388.056-1.965-.348-.812-1.191-1.348-2.507-1.59-1.533-.284-1.578-1.051-1.526-1.368.046-.28.205-.553.462-.79.435-.4 1.366-.903 3.328-1.02 1.207-.07 2.491.202 3.663.608-.269.448-.533.901-.788 1.363a52.748 52.748 0 0 0-1.808 3.6l-.256.55c-.083.182-.271.606-.346.804a7.684 7.684 0 0 0-.178.472c-.056.163-.008.338.145.524.109.128.233.213.371.254.14.04.273.044.401.009a.206.206 0 0 0 .15-.149 1.05 1.05 0 0 1 .089-.218c.115-.257.215-.484.3-.682a22.84 22.84 0 0 1 .564-1.197c.062-.128.123-.256.18-.384h.032c.262-.019.526-.047.792-.08.06.078.153.302.002.89l-.014.06-.01.039c-.043.174-.06.361-.052.559.007.396.141.699.403.909.261.21.556.302.885.28.36-.024.673-.14.939-.35.237-.188.456-.396.657-.622.048.153.122.302.222.447.132.186.295.32.488.402.194.081.39.122.588.122a.773.773 0 0 0 .236-.035c.073-.023.148-.052.224-.087-.46.998-1.34 3.836-1.358 3.924a9.37 9.37 0 0 1-.063.27.518.518 0 0 0 .114.49c.112.14.246.236.403.288.157.053.302.05.436-.009a.242.242 0 0 0 .125-.157c.02-.071.038-.145.063-.227 1.186-3.834 2.068-5.64 2.913-7.113.312-.544.616-1.136.996-1.73l.237-.376c.064-.099.118-.177.164-.236a.499.499 0 0 0 .087-.149.261.261 0 0 0 .005-.13zm-22.516-28.01c0 6.182 4.799 6.586 4.799 6.586 1.67.532 10.916 1.656 14.389 1.653 3.637-.003 13.23-1.12 14.9-1.653 0 0 4.798-.403 4.798-6.587 0 0 0-6.855-4.797-11.022-4.653-4.041-11.646-4.918-14.39-4.97-.04-.004-.087 0-.129 0-.04 0-.09-.004-.127-.004l-.128.003-.127-.003c-2.742.056-9.737.933-14.39 4.974-4.798 4.167-4.798 11.022-4.798 11.022z" transform="translate(24 9)" fill-rule="nonzero"/>
    </g>
</symbol><symbol id="icon-ticket" viewBox="0 0 22 22">
    <title>
        ticket
    </title>
    <g fill-rule="nonzero">
        <path d="M21.53 7.82L14.169.46a1.527 1.527 0 0 0-2.183 0L.503 11.941a1.566 1.566 0 0 0-.46 1.135c.009.407.176.782.47 1.058l1.567 1.568a.775.775 0 0 0 1.01.076c.9-.665 2.153-.579 2.915.202.78.8.875 2.055.22 2.922a.776.776 0 0 0 .071 1.016l1.578 1.578a1.568 1.568 0 0 0 1.134.46 1.483 1.483 0 0 0 1.059-.47L21.54 10.013c.301-.3.468-.714.46-1.134a1.483 1.483 0 0 0-.47-1.059zm-8.437-6.272c-.003.002-.01.003-.014.004l-.544-.544.558.54zM8.965 20.394l-1.14-1.14c.696-1.412.437-3.182-.71-4.357-1.142-1.17-2.92-1.434-4.367-.72l-1.142-1.143L13.078 1.562l7.36 7.36L8.964 20.394z"/>
        <path d="M9.24 4.192l1.103-1.09 1.991 2.017-1.103 1.09z"/>
        <path d="M15.818 10.793l1.09-1.105 2.018 1.992-1.09 1.104z"/>
        <path d="M12.527 7.48l1.097-1.097L15.642 8.4l-1.097 1.097z"/>
    </g>
</symbol><symbol id="icon-tiles" viewBox="0 0 16 16">
    <title>
        Combined Shape
    </title>
    <path d="M10.5 10.5v4h4v-4h-4zM9 9h7v7H9V9zm1.5-7.5v4h4v-4h-4zM9 0h7v7H9V0zM1.5 10.5v4h4v-4h-4zM0 9h7v7H0V9zm1.5-7.5v4h4v-4h-4zM0 0h7v7H0V0z" fill-rule="nonzero"/>
</symbol><symbol id="icon-tourist-with-baggage" viewBox="0 0 14 16">
    <title>
        tourist
    </title>
    <g fill-rule="nonzero">
        <path d="M5.393 4.866A5.15 5.15 0 0 0 3.749 4.3a.44.44 0 0 0-.485.274l-.45 1.125-.449-1.125a.445.445 0 0 0-.487-.274c-.588.1-1.14.293-1.64.57a.444.444 0 0 0-.23.389v5.47c0 .245.198.443.443.443h.094v4.356c0 .246.198.444.444.444H4.64a.443.443 0 0 0 .443-.444v-4.363h.095a.443.443 0 0 0 .443-.443v-5.47a.44.44 0 0 0-.23-.386zM4.198 15.079h-.943v-2.128a.443.443 0 1 0-.886 0v2.128h-.937v-3.914h2.766v3.914zm.534-4.8H.894V5.523c.249-.116.513-.21.786-.28l.723 1.81c.066.17.23.28.412.28a.44.44 0 0 0 .412-.28l.723-1.807c.273.07.534.16.782.28v4.753z"/>
        <path d="M2.815 0A1.824 1.824 0 0 0 .992 1.823a1.824 1.824 0 0 0 1.823 1.823 1.824 1.824 0 0 0 1.823-1.823A1.824 1.824 0 0 0 2.815 0zm0 2.757a.94.94 0 0 1-.937-.937.935.935 0 0 1 .937-.937.94.94 0 0 1 .937.937.94.94 0 0 1-.937.937z"/>
        <path d="M12.688 8.43h-.952V6.718a.443.443 0 0 0-.443-.443H9.388a.443.443 0 0 0-.443.443v1.714h-.953a.443.443 0 0 0-.443.443V14.9c0 .245.198.443.443.443h.283v.18a.443.443 0 1 0 .886 0v-.18h2.361v.18a.443.443 0 1 0 .887 0v-.18h.283a.443.443 0 0 0 .443-.443V8.874a.45.45 0 0 0-.447-.443zm-2.86-1.27h1.018v1.27H9.828V7.16zm2.414 7.297h-3.81v-5.14h3.81v5.14z"/>
    </g>
</symbol><symbol id="icon-user-2" viewBox="0 0 14 16">
    <title>
        user
    </title>
    <g fill-rule="evenodd">
        <circle cx="6.757" cy="3.707" r="3.707"/>
        <path d="M6.757 9.266a6.718 6.718 0 0 0-6.718 6.719h13.436a6.718 6.718 0 0 0-6.718-6.719z"/>
    </g>
</symbol><symbol id="icon-user" viewBox="0 0 18 22">
    <title>
        user-5
    </title>
    <g fill-rule="nonzero">
        <path d="M8.578 10.345a5.178 5.178 0 0 0 5.172-5.173A5.178 5.178 0 0 0 8.578 0a5.178 5.178 0 0 0-5.173 5.172 5.178 5.178 0 0 0 5.173 5.173zm0-8.276a3.107 3.107 0 0 1 3.103 3.103 3.107 3.107 0 0 1-3.103 3.104 3.107 3.107 0 0 1-3.104-3.104A3.107 3.107 0 0 1 8.578 2.07z"/>
        <path d="M8.578 12.414c-4.706 0-8.535 3.828-8.535 8.534v1.035h17.07v-1.035c0-4.706-3.83-8.534-8.535-8.534zm-6.383 7.5c.496-3.075 3.17-5.431 6.383-5.431s5.886 2.356 6.382 5.43H2.195z"/>
    </g>
</symbol><symbol id="icon-wc" viewBox="0 0 19 19">
    <title>
        Group
    </title>
    <g fill-rule="evenodd">
        <path d="M15.055 5.682a2.205 2.205 0 1 0 .001-4.41 2.205 2.205 0 0 0 0 4.41z"/>
        <path d="M18.785 11.386c-.176-2.335-.458-3.546-1.005-4.319-.705-.994-1.776-1.077-2.725-1.077-.948 0-2.02.083-2.724 1.077-.548.772-.83 1.983-1.005 4.32a.7.7 0 0 0 1.395.104c.107-1.417.256-2.39.469-3.02v2.927c0 .147.017.29.05.427v5.903a.816.816 0 1 0 1.632 0v-4.473a1.893 1.893 0 0 0 .367 0v4.473a.816.816 0 1 0 1.633 0v-5.906a1.87 1.87 0 0 0 .049-.424V8.47c.212.63.362 1.604.468 3.021a.7.7 0 1 0 1.396-.105z"/>
        <path d="M3.945 5.682a2.205 2.205 0 1 0 0-4.41 2.205 2.205 0 0 0 0 4.41z"/>
        <path d="M6.67 7.067C5.964 6.073 4.892 5.99 3.944 5.99c-.949 0-2.02.083-2.725 1.077-.547.773-.83 1.984-1.005 4.32a.7.7 0 1 0 1.396.104c.106-1.418.255-2.392.468-3.022v2.11l-.695 3.12a.205.205 0 0 0 .2.25h.544v3.779a.816.816 0 1 0 1.632 0v-3.779h.368v3.779a.816.816 0 1 0 1.632 0v-3.779h.546a.205.205 0 0 0 .194-.271l-.69-3.099V8.47c.213.63.362 1.604.469 3.022a.7.7 0 0 0 1.395-.105C7.498 9.05 7.217 7.84 6.669 7.067z"/>
        <path d="M9.5.876a.65.65 0 0 0-.65.65v15.949a.65.65 0 1 0 1.3 0V1.525A.65.65 0 0 0 9.5.877z"/>
    </g>
</symbol></svg>